…
## Installation

You can install the development version of `bbggplots` from GitHub with:

``` r
remotes::install_github("erictleung/bbggplots")
```

## Example

``` r
library(bbggplots)

bbgdata
#> # A tibble: 8,190 × 5
#>    date       alt                        tree              id    bloom   
#>    <date>     <chr>                      <chr>             <chr> <chr>   
#>  1 2016-03-16 Prunus ‘Kanzan’            kanzan            50    Prebloom
#>  2 2016-03-16 Prunus ‘Snow Goose’        prunus_snow_goose 147   Prebloom
#>  3 2016-03-16 Prunus × sieboldii         sieboldii         161   Prebloom
#>  4 2016-03-16 Prunus × sieboldii         sieboldii         160   Prebloom
#>  5 2016-03-16 Prunus × subhirtella       subhirtella       159   Prebloom
#>  6 2016-03-16 Prunus ‘Ukon’              ukon              158   Prebloom
#>  7 2016-03-16 Prunus serrulata ‘Horinji’ horinji           157   Prebloom
#>  8 2016-03-16 Prunus × yedoensis         yedoensis         156   Prebloom
#>  9 2016-03-16 Prunus ‘Ariake’            ariake            154   Prebloom
#> 10 2016-03-16 Prunus ‘Shirotae’          shirotae          153   Prebloom
#> # ℹ 8,180 more rows
```
…
