…
## Details

The data serves as an archive for the more visual map of the cherry
blossom trees that the official website shows.

Note: data pulled from 2024 and earlier are retroactively pulled using a
snapshot from <https://archive.org>, so data is only available based on
whether someone saved the page (i.e., there can be missing data).

## Examples

``` r
bbgdata
#> # A tibble: 4,387 × 5
#>    date       alt                                  tree             id    bloom 
#>    <date>     <chr>                                <chr>            <chr> <chr> 
#>  1 2025-04-14 Prunus ‘Taki-nioi’                   taki_nioi        163   First…
#>  2 2025-04-14 Prunus pendula ‘Pendula Rosea ’      pendula          128   Peak …
#>  3 2025-04-14 Prunus pendula ‘Pendula Plena Rosea’ yae_beni_shidare 126   Peak …
#>  4 2025-04-14 Prunus × sieboldii                   sieboldii        160   First…
#>  5 2025-04-14 Prunus ‘Hata-zakura’                 hatazakura       106   First…
#>  6 2025-04-14 Prunus ‘Ariake’                      ariake           154   First…
#>  7 2025-04-14 Prunus ‘Ukon’                        ukon             162   Prebl…
#>  8 2025-04-14 Prunus × sieboldii                   sieboldii        161   First…
#>  9 2025-04-14 Prunus ‘Fudan-zakura’                fudan_zakura     107   Post-…
#> 10 2025-04-14 Prunus ‘Shirotae’                    shirotae         153   First…
#> # ℹ 4,377 more rows
```
