…
Here, we can pull data for 2025-04-14, which is the date of peak bloom
for the cherry trees in that year. We will then join this data with the
`treepositions` data frame to get the spatial coordinates of each tree.

``` r
bbgdata |>
    filter(date == "2025-04-14") |>
    mutate(id = as.character(id)) |>
    left_join(treepositions, by = join_by(tree == tree, id == id))
#> # A tibble: 152 × 9
#>    date       alt                    tree  id    bloom id_full style   top  left
#>    <date>     <chr>                  <chr> <chr> <chr> <chr>   <chr> <dbl> <dbl>
#>  1 2025-04-14 Prunus ‘Taki-nioi’     taki… 163   Firs… taki_n… posi…  40.2  45.4
#>  2 2025-04-14 Prunus pendula ‘Pendu… pend… 128   Peak… pendul… posi…  19.3  72.4
#>  3 2025-04-14 Prunus pendula ‘Pendu… yae_… 126   Peak… yae_be… posi…  13.6  75.1
#>  4 2025-04-14 Prunus × sieboldii     sieb… 160   Firs… siebol… posi…  40.8  57.6
#>  5 2025-04-14 Prunus ‘Hata-zakura’   hata… 106   Firs… hataza… posi…  81.7  39.6
#>  6 2025-04-14 Prunus ‘Ariake’        aria… 154   Firs… ariake… posi…  20.5  59.8
#>  7 2025-04-14 Prunus ‘Ukon’          ukon  162   Preb… ukon_1… posi…  36.1  53.6
#>  8 2025-04-14 Prunus × sieboldii     sieb… 161   Firs… siebol… posi…  38.2  58.2
#>  9 2025-04-14 Prunus ‘Fudan-zakura’  fuda… 107   Post… fudan_… posi…  26.3  34.9
#> 10 2025-04-14 Prunus ‘Shirotae’      shir… 153   Firs… shirot… posi…  30.7  83.6
#> # ℹ 142 more rows
```
…
